Started at Wed Apr 01 04:14:58 KST 2020
Finished at Wed Apr 01 04:14:58 KST 2020. 1ms
Started at Wed Apr 01 05:14:58 KST 2020
Finished at Wed Apr 01 05:14:58 KST 2020. 3ms
Started at Wed Apr 01 06:14:58 KST 2020
Finished at Wed Apr 01 06:14:58 KST 2020. 9ms
Started at Wed Apr 01 07:14:58 KST 2020
Finished at Wed Apr 01 07:14:58 KST 2020. 2ms
Started at Wed Apr 01 08:14:58 KST 2020
Finished at Wed Apr 01 08:14:58 KST 2020. 3ms
Started at Wed Apr 01 09:14:58 KST 2020
Finished at Wed Apr 01 09:14:58 KST 2020. 2ms
Started at Wed Apr 01 10:14:58 KST 2020
Finished at Wed Apr 01 10:14:58 KST 2020. 3ms
Started at Wed Apr 01 11:14:58 KST 2020
Finished at Wed Apr 01 11:14:58 KST 2020. 4ms
Started at Wed Apr 01 12:14:58 KST 2020
Finished at Wed Apr 01 12:14:58 KST 2020. 5ms
Started at Wed Apr 01 13:14:58 KST 2020
Finished at Wed Apr 01 13:14:58 KST 2020. 4ms
Started at Wed Apr 01 14:14:58 KST 2020
Finished at Wed Apr 01 14:14:58 KST 2020. 3ms
Started at Wed Apr 01 15:14:58 KST 2020
Finished at Wed Apr 01 15:14:58 KST 2020. 16ms
Started at Wed Apr 01 16:14:58 KST 2020
Finished at Wed Apr 01 16:14:58 KST 2020. 6ms
Started at Wed Apr 01 17:14:58 KST 2020
Finished at Wed Apr 01 17:14:58 KST 2020. 3ms
Started at Wed Apr 01 18:14:58 KST 2020
Finished at Wed Apr 01 18:14:58 KST 2020. 3ms
